{
  "name": "dipindevopsproject",
  "version": "1.0.0",
  "description": "",
  "main": "index.js",
  "scripts": {
    "test": "echo \"Error: no test specified\" && exit 1"
  },
  "keywords": [],
  "author": "",
  "license": "ISC",
  "dependencies": {
    "mysql": "^2.18.1",
    "restify": "^8.5.1"
  }
}
